Version = 2.0
File Name = Z:/RB_ARIS_Files/ARIS_2019_07_03/Porcupine_RB_2019-07-03_093000.aris
Total Number Of Marks = 2
Total Time = 29.967 minutes
Date = 07/03/2019
Start Time = 02:30:11

Sample	Ping	Time	Range	Amplitude	XAngle	YAngle	Direction	Length	Area	Operator
245	8869	25.078	 25.46	 4.131	 0.82	 0.00	0.000	 0.710	  0.00	LNN
249	8867	25.072	 25.54	-14.181	-3.60	 0.00	1.000	 0.000	  0.00	LNN
