Version = 2.0
File Name = D:/RB_ARIS_Files/ARIS_2019_07_06/Porcupine_RB_2019-07-06_123918.aris
Total Number Of Marks = 1
Total Time = 20.683 minutes
Date = 07/06/2019
Start Time = 05:39:18

Sample	Ping	Time	Range	Amplitude	XAngle	YAngle	Direction	Length	Area	Operator
130	714	 1.980	 22.80	-7.156	 0.00	 0.00	1.000	 0.000	  0.00	KJW
