Version = 2.0
File Name = Z:/RB_ARIS_Files/ARIS_2019_06_28/Porcupine_RB_2019-06-28_040000.aris
Total Number Of Marks = 0
Total Time = 29.983 minutes
Date = 06/27/2019
Start Time = 21:00:03

Sample	Ping	Time	Range	Amplitude	XAngle	YAngle	Direction	Length	Area	Operator
