Version = 2.0
File Name = Z:/RB_ARIS_Files/ARIS_2019_06_28/Porcupine_RB_2019-06-28_110000.aris
Total Number Of Marks = 0
Total Time = 29.983 minutes
Date = 06/28/2019
Start Time = 04:00:04

Sample	Ping	Time	Range	Amplitude	XAngle	YAngle	Direction	Length	Area	Operator
