Version = 2.0
File Name = Z:/RB_ARIS_Files/ARIS_2019_06_27/Porcupine_RB_2019-06-27_213000.aris
Total Number Of Marks = 0
Total Time = 29.983 minutes
Date = 06/27/2019
Start Time = 14:30:02

Sample	Ping	Time	Range	Amplitude	XAngle	YAngle	Direction	Length	Area	Operator
