Version = 2.0
File Name = Z:/RB_ARIS_Files/ARIS_2019_07_01/Porcupine_RB_2019-07-01_023000.aris
Total Number Of Marks = 0
Total Time = 29.983 minutes
Date = 06/30/2019
Start Time = 19:30:02

Sample	Ping	Time	Range	Amplitude	XAngle	YAngle	Direction	Length	Area	Operator
