Version = 2.0
File Name = Z:/RB_ARIS_Files/ARIS_2019_07_03/Porcupine_RB_2019-07-03_223000.aris
Total Number Of Marks = 0
Total Time = 29.967 minutes
Date = 07/03/2019
Start Time = 15:30:13

Sample	Ping	Time	Range	Amplitude	XAngle	YAngle	Direction	Length	Area	Operator
