Version = 2.0
File Name = D:/RB_ARIS_Files/ARIS_2019_07_05/Porcupine_RB_2019-07-05_043000.aris
Total Number Of Marks = 0
Total Time = 29.983 minutes
Date = 07/04/2019
Start Time = 21:30:17

Sample	Ping	Time	Range	Amplitude	XAngle	YAngle	Direction	Length	Area	Operator
