Version = 2.0
File Name = Z:/RB_ARIS_Files/ARIS_2019_07_04/Porcupine_RB_2019-07-04_060000.aris
Total Number Of Marks = 0
Total Time = 29.967 minutes
Date = 07/03/2019
Start Time = 23:00:14

Sample	Ping	Time	Range	Amplitude	XAngle	YAngle	Direction	Length	Area	Operator
