Version = 2.0
File Name = Z:/RB_ARIS_Files/ARIS_2019_07_01/Porcupine_RB_2019-07-01_113000.aris
Total Number Of Marks = 0
Total Time = 29.967 minutes
Date = 07/01/2019
Start Time = 04:30:04

Sample	Ping	Time	Range	Amplitude	XAngle	YAngle	Direction	Length	Area	Operator
