Version = 2.0
File Name = Z:/RB_ARIS_Files/ARIS_2019_06_29/Porcupine_RB_2019-06-29_040000.aris
Total Number Of Marks = 1
Total Time = 29.983 minutes
Date = 06/28/2019
Start Time = 21:00:07

Sample	Ping	Time	Range	Amplitude	XAngle	YAngle	Direction	Length	Area	Operator
1743	8188	22.558	  9.59	-13.201	-0.60	 0.00	1.000	 0.000	  0.00	LNN
