Version = 2.0
File Name = Y:/LB_ARIS_Files/ARIS_2019_07_05/Porcupine_LB_2019-07-05_190000.aris
Total Number Of Marks = 2
Total Time = 29.983 minutes
Date = 07/05/2019
Start Time = 12:00:00

Sample	Ping	Time	Range	Amplitude	XAngle	YAngle	Direction	Length	Area	Operator
264	10349	26.562	  7.92	-8.483	 3.03	 0.00	0.000	 0.854	  0.00	LNN
270	10350	26.565	  8.03	 6.234	 1.20	 0.00	1.000	 0.000	  0.00	LNN
