Version = 2.0
File Name = Y:/LB_ARIS_Files/ARIS_2019_07_04/Porcupine_LB_2019-07-04_110534.aris
Total Number Of Marks = 0
Total Time = 24.417 minutes
Date = 07/04/2019
Start Time = 04:05:34

Sample	Ping	Time	Range	Amplitude	XAngle	YAngle	Direction	Length	Area	Operator
