Version = 2.0
File Name = Y:/LB_ARIS_Files/ARIS_2019_07_07/Porcupine_LB_2019-07-07_130000.aris
Total Number Of Marks = 0
Total Time = 29.967 minutes
Date = 07/07/2019
Start Time = 06:00:01

Sample	Ping	Time	Range	Amplitude	XAngle	YAngle	Direction	Length	Area	Operator
