Version = 2.0
File Name = Y:/LB_ARIS_Files/ARIS_2019_07_05/Porcupine_LB_2019-07-05_160000.aris
Total Number Of Marks = 2
Total Time = 29.967 minutes
Date = 07/05/2019
Start Time = 09:00:03

Sample	Ping	Time	Range	Amplitude	XAngle	YAngle	Direction	Length	Area	Operator
130	826	 2.151	  4.94	16.616	 3.96	 0.00	0.000	 0.682	  0.00	LNN
134	827	 2.154	  5.02	-10.817	 0.60	 0.00	1.000	 0.000	  0.00	LNN
